%YAML 1.1
%TAG !u! tag:unity3d.com,2011:
--- !u!1001 &8132812257754669329
PrefabInstance:
  m_ObjectHideFlags: 0
  serializedVersion: 2
  m_Modification:
    m_TransformParent: {fileID: 0}
    m_Modifications:
    - target: {fileID: 312823518446425430, guid: 3283d9aecaab29047bda07ab650dd08e, type: 3}
      propertyPath: moveMode
      value: 2
      objectReference: {fileID: 0}
    - target: {fileID: 312823518752205644, guid: 3283d9aecaab29047bda07ab650dd08e, type: 3}
      propertyPath: <spawnMethod>k__BackingField
      value: 1
      objectReference: {fileID: 0}
    - target: {fileID: 1163874522331950630, guid: 3283d9aecaab29047bda07ab650dd08e, type: 3}
      propertyPath: dropChance
      value: 10
      objectReference: {fileID: 0}
    - target: {fileID: 8133098164932657958, guid: 3283d9aecaab29047bda07ab650dd08e, type: 3}
      propertyPath: gameObjectParticle.Array.data[0]
      value: 
      objectReference: {fileID: 1050103117533409789, guid: 357cb14250d5b3e4c975562cfed47a60, type: 3}
    - target: {fileID: 8396628828194817910, guid: 3283d9aecaab29047bda07ab650dd08e, type: 3}
      propertyPath: m_RootOrder
      value: 0
      objectReference: {fileID: 0}
    - target: {fileID: 8396628828194817910, guid: 3283d9aecaab29047bda07ab650dd08e, type: 3}
      propertyPath: m_LocalPosition.x
      value: -5.25
      objectReference: {fileID: 0}
    - target: {fileID: 8396628828194817910, guid: 3283d9aecaab29047bda07ab650dd08e, type: 3}
      propertyPath: m_LocalPosition.y
      value: -2.99
      objectReference: {fileID: 0}
    - target: {fileID: 8396628828194817910, guid: 3283d9aecaab29047bda07ab650dd08e, type: 3}
      propertyPath: m_LocalPosition.z
      value: 0
      objectReference: {fileID: 0}
    - target: {fileID: 8396628828194817910, guid: 3283d9aecaab29047bda07ab650dd08e, type: 3}
      propertyPath: m_LocalRotation.w
      value: 1
      objectReference: {fileID: 0}
    - target: {fileID: 8396628828194817910, guid: 3283d9aecaab29047bda07ab650dd08e, type: 3}
      propertyPath: m_LocalRotation.x
      value: 0
      objectReference: {fileID: 0}
    - target: {fileID: 8396628828194817910, guid: 3283d9aecaab29047bda07ab650dd08e, type: 3}
      propertyPath: m_LocalRotation.y
      value: 0
      objectReference: {fileID: 0}
    - target: {fileID: 8396628828194817910, guid: 3283d9aecaab29047bda07ab650dd08e, type: 3}
      propertyPath: m_LocalRotation.z
      value: 0
      objectReference: {fileID: 0}
    - target: {fileID: 8396628828194817910, guid: 3283d9aecaab29047bda07ab650dd08e, type: 3}
      propertyPath: m_LocalEulerAnglesHint.x
      value: 0
      objectReference: {fileID: 0}
    - target: {fileID: 8396628828194817910, guid: 3283d9aecaab29047bda07ab650dd08e, type: 3}
      propertyPath: m_LocalEulerAnglesHint.y
      value: 0
      objectReference: {fileID: 0}
    - target: {fileID: 8396628828194817910, guid: 3283d9aecaab29047bda07ab650dd08e, type: 3}
      propertyPath: m_LocalEulerAnglesHint.z
      value: 0
      objectReference: {fileID: 0}
    - target: {fileID: 8396628828194817912, guid: 3283d9aecaab29047bda07ab650dd08e, type: 3}
      propertyPath: m_Name
      value: SoldierBottom
      objectReference: {fileID: 0}
    m_RemovedComponents: []
  m_SourcePrefab: {fileID: 100100000, guid: 3283d9aecaab29047bda07ab650dd08e, type: 3}
