%YAML 1.1
%TAG !u! tag:unity3d.com,2011:
--- !u!1001 &502228598903629813
PrefabInstance:
  m_ObjectHideFlags: 0
  serializedVersion: 2
  m_Modification:
    m_TransformParent: {fileID: 0}
    m_Modifications:
    - target: {fileID: -7750212395995408146, guid: 881e8683141ed9f489a69cfce8591340, type: 3}
      propertyPath: dropChance
      value: 10
      objectReference: {fileID: 0}
    - target: {fileID: 1723307268, guid: 881e8683141ed9f489a69cfce8591340, type: 3}
      propertyPath: gunIndex
      value: 2
      objectReference: {fileID: 0}
    - target: {fileID: 1845978014, guid: 881e8683141ed9f489a69cfce8591340, type: 3}
      propertyPath: moveMode
      value: 0
      objectReference: {fileID: 0}
    - target: {fileID: 1895341444, guid: 881e8683141ed9f489a69cfce8591340, type: 3}
      propertyPath: <spawnMethod>k__BackingField
      value: 0
      objectReference: {fileID: 0}
    - target: {fileID: 94304154998062790, guid: 881e8683141ed9f489a69cfce8591340, type: 3}
      propertyPath: m_Sprite
      value: 
      objectReference: {fileID: 1669864400, guid: 7ec81cd2af98ce543acc9d05704ef870, type: 3}
    - target: {fileID: 8129435190180131248, guid: 881e8683141ed9f489a69cfce8591340, type: 3}
      propertyPath: m_Name
      value: SoldierRocketSideWay
      objectReference: {fileID: 0}
    - target: {fileID: 8129435190180131262, guid: 881e8683141ed9f489a69cfce8591340, type: 3}
      propertyPath: m_RootOrder
      value: 0
      objectReference: {fileID: 0}
    - target: {fileID: 8129435190180131262, guid: 881e8683141ed9f489a69cfce8591340, type: 3}
      propertyPath: m_LocalPosition.x
      value: -1.71
      objectReference: {fileID: 0}
    - target: {fileID: 8129435190180131262, guid: 881e8683141ed9f489a69cfce8591340, type: 3}
      propertyPath: m_LocalPosition.y
      value: -1.21
      objectReference: {fileID: 0}
    - target: {fileID: 8129435190180131262, guid: 881e8683141ed9f489a69cfce8591340, type: 3}
      propertyPath: m_LocalPosition.z
      value: 0
      objectReference: {fileID: 0}
    - target: {fileID: 8129435190180131262, guid: 881e8683141ed9f489a69cfce8591340, type: 3}
      propertyPath: m_LocalRotation.w
      value: 1
      objectReference: {fileID: 0}
    - target: {fileID: 8129435190180131262, guid: 881e8683141ed9f489a69cfce8591340, type: 3}
      propertyPath: m_LocalRotation.x
      value: 0
      objectReference: {fileID: 0}
    - target: {fileID: 8129435190180131262, guid: 881e8683141ed9f489a69cfce8591340, type: 3}
      propertyPath: m_LocalRotation.y
      value: 0
      objectReference: {fileID: 0}
    - target: {fileID: 8129435190180131262, guid: 881e8683141ed9f489a69cfce8591340, type: 3}
      propertyPath: m_LocalRotation.z
      value: 0
      objectReference: {fileID: 0}
    - target: {fileID: 8129435190180131262, guid: 881e8683141ed9f489a69cfce8591340, type: 3}
      propertyPath: m_LocalEulerAnglesHint.x
      value: 0
      objectReference: {fileID: 0}
    - target: {fileID: 8129435190180131262, guid: 881e8683141ed9f489a69cfce8591340, type: 3}
      propertyPath: m_LocalEulerAnglesHint.y
      value: 0
      objectReference: {fileID: 0}
    - target: {fileID: 8129435190180131262, guid: 881e8683141ed9f489a69cfce8591340, type: 3}
      propertyPath: m_LocalEulerAnglesHint.z
      value: 0
      objectReference: {fileID: 0}
    - target: {fileID: 8397470467116840430, guid: 881e8683141ed9f489a69cfce8591340, type: 3}
      propertyPath: gameObjectParticle
      value: 
      objectReference: {fileID: 1050103117533409789, guid: 357cb14250d5b3e4c975562cfed47a60, type: 3}
    - target: {fileID: 8397470467116840430, guid: 881e8683141ed9f489a69cfce8591340, type: 3}
      propertyPath: gameObjectParticle.Array.data[0]
      value: 
      objectReference: {fileID: 1050103117533409789, guid: 357cb14250d5b3e4c975562cfed47a60, type: 3}
    m_RemovedComponents: []
  m_SourcePrefab: {fileID: 100100000, guid: 881e8683141ed9f489a69cfce8591340, type: 3}
--- !u!1 &8514556490807137861 stripped
GameObject:
  m_CorrespondingSourceObject: {fileID: 8129435190180131248, guid: 881e8683141ed9f489a69cfce8591340, type: 3}
  m_PrefabInstance: {fileID: 502228598903629813}
  m_PrefabAsset: {fileID: 0}
--- !u!114 &6504927754223872165
MonoBehaviour:
  m_ObjectHideFlags: 0
  m_CorrespondingSourceObject: {fileID: 0}
  m_PrefabInstance: {fileID: 0}
  m_PrefabAsset: {fileID: 0}
  m_GameObject: {fileID: 8514556490807137861}
  m_Enabled: 1
  m_EditorHideFlags: 0
  m_Script: {fileID: 11500000, guid: d2cab56e8814e3d42a37a0f0ef3fb24f, type: 3}
  m_Name: 
  m_EditorClassIdentifier: 
  allowAttack: 1
  attackCooldown: 3
  spread: 0
  amount: 1
  bullet: {fileID: 6252373739904138596, guid: 0cdd3eabae546474597ef25cee719b1a, type: 3}
  attackParticle: {fileID: 3632730206650364199, guid: 1d3c264faaecfe74882e39d6c83e8fcc, type: 3}
