%YAML 1.1
%TAG !u! tag:unity3d.com,2011:
--- !u!1001 &7996698145775616715
PrefabInstance:
  m_ObjectHideFlags: 0
  serializedVersion: 2
  m_Modification:
    m_TransformParent: {fileID: 0}
    m_Modifications:
    - target: {fileID: -7750212395995408146, guid: 881e8683141ed9f489a69cfce8591340, type: 3}
      propertyPath: dropChance
      value: 30
      objectReference: {fileID: 0}
    - target: {fileID: 1845978014, guid: 881e8683141ed9f489a69cfce8591340, type: 3}
      propertyPath: moveMode
      value: 1
      objectReference: {fileID: 0}
    - target: {fileID: 1845978021, guid: 881e8683141ed9f489a69cfce8591340, type: 3}
      propertyPath: m_Controller
      value: 
      objectReference: {fileID: 9100000, guid: 4ab194acccc51414a92502fd1597c3e7, type: 2}
    - target: {fileID: 1845978023, guid: 881e8683141ed9f489a69cfce8591340, type: 3}
      propertyPath: healthRestore
      value: 2
      objectReference: {fileID: 0}
    - target: {fileID: 1944061879561157423, guid: 881e8683141ed9f489a69cfce8591340, type: 3}
      propertyPath: m_LocalScale.x
      value: 3
      objectReference: {fileID: 0}
    - target: {fileID: 1944061879561157423, guid: 881e8683141ed9f489a69cfce8591340, type: 3}
      propertyPath: m_LocalScale.y
      value: 3
      objectReference: {fileID: 0}
    - target: {fileID: 1944061879561157423, guid: 881e8683141ed9f489a69cfce8591340, type: 3}
      propertyPath: m_LocalScale.z
      value: 3
      objectReference: {fileID: 0}
    - target: {fileID: 7470055399094316958, guid: 881e8683141ed9f489a69cfce8591340, type: 3}
      propertyPath: m_SpriteTilingProperty.newSize.x
      value: 0.48
      objectReference: {fileID: 0}
    - target: {fileID: 7470055399094316958, guid: 881e8683141ed9f489a69cfce8591340, type: 3}
      propertyPath: m_SpriteTilingProperty.newSize.y
      value: 0.48
      objectReference: {fileID: 0}
    - target: {fileID: 7470055399094316958, guid: 881e8683141ed9f489a69cfce8591340, type: 3}
      propertyPath: m_SpriteTilingProperty.oldSize.x
      value: 0.48
      objectReference: {fileID: 0}
    - target: {fileID: 7470055399094316958, guid: 881e8683141ed9f489a69cfce8591340, type: 3}
      propertyPath: m_SpriteTilingProperty.oldSize.y
      value: 0.48
      objectReference: {fileID: 0}
    - target: {fileID: 8129435190180131248, guid: 881e8683141ed9f489a69cfce8591340, type: 3}
      propertyPath: m_Name
      value: WatSummon
      objectReference: {fileID: 0}
    - target: {fileID: 8129435190180131262, guid: 881e8683141ed9f489a69cfce8591340, type: 3}
      propertyPath: m_RootOrder
      value: 0
      objectReference: {fileID: 0}
    - target: {fileID: 8129435190180131262, guid: 881e8683141ed9f489a69cfce8591340, type: 3}
      propertyPath: m_LocalPosition.x
      value: -1.46
      objectReference: {fileID: 0}
    - target: {fileID: 8129435190180131262, guid: 881e8683141ed9f489a69cfce8591340, type: 3}
      propertyPath: m_LocalPosition.y
      value: -0.18
      objectReference: {fileID: 0}
    - target: {fileID: 8129435190180131262, guid: 881e8683141ed9f489a69cfce8591340, type: 3}
      propertyPath: m_LocalPosition.z
      value: 0
      objectReference: {fileID: 0}
    - target: {fileID: 8129435190180131262, guid: 881e8683141ed9f489a69cfce8591340, type: 3}
      propertyPath: m_LocalRotation.w
      value: 1
      objectReference: {fileID: 0}
    - target: {fileID: 8129435190180131262, guid: 881e8683141ed9f489a69cfce8591340, type: 3}
      propertyPath: m_LocalRotation.x
      value: 0
      objectReference: {fileID: 0}
    - target: {fileID: 8129435190180131262, guid: 881e8683141ed9f489a69cfce8591340, type: 3}
      propertyPath: m_LocalRotation.y
      value: 0
      objectReference: {fileID: 0}
    - target: {fileID: 8129435190180131262, guid: 881e8683141ed9f489a69cfce8591340, type: 3}
      propertyPath: m_LocalRotation.z
      value: 0
      objectReference: {fileID: 0}
    - target: {fileID: 8129435190180131262, guid: 881e8683141ed9f489a69cfce8591340, type: 3}
      propertyPath: m_LocalEulerAnglesHint.x
      value: 0
      objectReference: {fileID: 0}
    - target: {fileID: 8129435190180131262, guid: 881e8683141ed9f489a69cfce8591340, type: 3}
      propertyPath: m_LocalEulerAnglesHint.y
      value: 0
      objectReference: {fileID: 0}
    - target: {fileID: 8129435190180131262, guid: 881e8683141ed9f489a69cfce8591340, type: 3}
      propertyPath: m_LocalEulerAnglesHint.z
      value: 0
      objectReference: {fileID: 0}
    - target: {fileID: 8397470467116840430, guid: 881e8683141ed9f489a69cfce8591340, type: 3}
      propertyPath: gameObjectParticle.Array.size
      value: 1
      objectReference: {fileID: 0}
    - target: {fileID: 8397470467116840430, guid: 881e8683141ed9f489a69cfce8591340, type: 3}
      propertyPath: gameObjectParticle.Array.data[0]
      value: 
      objectReference: {fileID: 637335171104225494, guid: 92b7be0b86cbbb74fb08c799256634f9, type: 3}
    m_RemovedComponents:
    - {fileID: 1845978022, guid: 881e8683141ed9f489a69cfce8591340, type: 3}
  m_SourcePrefab: {fileID: 100100000, guid: 881e8683141ed9f489a69cfce8591340, type: 3}
--- !u!1 &2173115066818507643 stripped
GameObject:
  m_CorrespondingSourceObject: {fileID: 8129435190180131248, guid: 881e8683141ed9f489a69cfce8591340, type: 3}
  m_PrefabInstance: {fileID: 7996698145775616715}
  m_PrefabAsset: {fileID: 0}
--- !u!212 &431758768
SpriteRenderer:
  m_ObjectHideFlags: 0
  m_CorrespondingSourceObject: {fileID: 0}
  m_PrefabInstance: {fileID: 0}
  m_PrefabAsset: {fileID: 0}
  m_GameObject: {fileID: 2173115066818507643}
  m_Enabled: 1
  m_CastShadows: 0
  m_ReceiveShadows: 0
  m_DynamicOccludee: 1
  m_StaticShadowCaster: 0
  m_MotionVectors: 1
  m_LightProbeUsage: 1
  m_ReflectionProbeUsage: 1
  m_RayTracingMode: 0
  m_RayTraceProcedural: 0
  m_RenderingLayerMask: 1
  m_RendererPriority: 0
  m_Materials:
  - {fileID: 10754, guid: 0000000000000000f000000000000000, type: 0}
  m_StaticBatchInfo:
    firstSubMesh: 0
    subMeshCount: 0
  m_StaticBatchRoot: {fileID: 0}
  m_ProbeAnchor: {fileID: 0}
  m_LightProbeVolumeOverride: {fileID: 0}
  m_ScaleInLightmap: 1
  m_ReceiveGI: 1
  m_PreserveUVs: 0
  m_IgnoreNormalsForChartDetection: 0
  m_ImportantGI: 0
  m_StitchLightmapSeams: 1
  m_SelectedEditorRenderState: 0
  m_MinimumChartSize: 4
  m_AutoUVMaxDistance: 0.5
  m_AutoUVMaxAngle: 89
  m_LightmapParameters: {fileID: 0}
  m_SortingLayerID: 0
  m_SortingLayer: 0
  m_SortingOrder: 0
  m_Sprite: {fileID: 0}
  m_Color: {r: 1, g: 1, b: 1, a: 1}
  m_FlipX: 0
  m_FlipY: 0
  m_DrawMode: 0
  m_Size: {x: 0.48, y: 0.48}
  m_AdaptiveModeThreshold: 0.5
  m_SpriteTileMode: 0
  m_WasSpriteAssigned: 0
  m_MaskInteraction: 0
  m_SpriteSortPoint: 0
--- !u!114 &431758769
MonoBehaviour:
  m_ObjectHideFlags: 0
  m_CorrespondingSourceObject: {fileID: 0}
  m_PrefabInstance: {fileID: 0}
  m_PrefabAsset: {fileID: 0}
  m_GameObject: {fileID: 2173115066818507643}
  m_Enabled: 1
  m_EditorHideFlags: 0
  m_Script: {fileID: 11500000, guid: d2cab56e8814e3d42a37a0f0ef3fb24f, type: 3}
  m_Name: 
  m_EditorClassIdentifier: 
  allowAttack: 1
  attackCooldown: 4
  spread: 0
  amount: 1
  bullet: {fileID: -7280427266241704511, guid: c815ee944eaa2e841bdb42635061ea33, type: 3}
  attackParticle: {fileID: 3632730206650364199, guid: 1d3c264faaecfe74882e39d6c83e8fcc, type: 3}
