%YAML 1.1
%TAG !u! tag:unity3d.com,2011:
--- !u!74 &7400000
AnimationClip:
  m_ObjectHideFlags: 0
  m_CorrespondingSourceObject: {fileID: 0}
  m_PrefabInstance: {fileID: 0}
  m_PrefabAsset: {fileID: 0}
  m_Name: WatCannon
  serializedVersion: 6
  m_Legacy: 0
  m_Compressed: 0
  m_UseHighQualityCurve: 1
  m_RotationCurves: []
  m_CompressedRotationCurves: []
  m_EulerCurves: []
  m_PositionCurves: []
  m_ScaleCurves: []
  m_FloatCurves: []
  m_PPtrCurves:
  - curve:
    - time: 0
      value: {fileID: 1242610921, guid: 1b82405c1b132914bbe2eeb57d8e6158, type: 3}
    - time: 0.016666668
      value: {fileID: 1204579524, guid: 1b82405c1b132914bbe2eeb57d8e6158, type: 3}
    - time: 0.033333335
      value: {fileID: -829366382, guid: 1b82405c1b132914bbe2eeb57d8e6158, type: 3}
    - time: 0.05
      value: {fileID: 1958199088, guid: 1b82405c1b132914bbe2eeb57d8e6158, type: 3}
    - time: 0.06666667
      value: {fileID: -1744086446, guid: 1b82405c1b132914bbe2eeb57d8e6158, type: 3}
    - time: 0.083333336
      value: {fileID: 1751462587, guid: 1b82405c1b132914bbe2eeb57d8e6158, type: 3}
    - time: 0.1
      value: {fileID: -1280788796, guid: 1b82405c1b132914bbe2eeb57d8e6158, type: 3}
    - time: 0.11666667
      value: {fileID: 2124176653, guid: 1b82405c1b132914bbe2eeb57d8e6158, type: 3}
    - time: 0.13333334
      value: {fileID: 936637547, guid: 1b82405c1b132914bbe2eeb57d8e6158, type: 3}
    - time: 0.15
      value: {fileID: -1906516776, guid: 1b82405c1b132914bbe2eeb57d8e6158, type: 3}
    - time: 0.16666667
      value: {fileID: 1504684320, guid: 1b82405c1b132914bbe2eeb57d8e6158, type: 3}
    - time: 0.18333334
      value: {fileID: 1288672019, guid: 1b82405c1b132914bbe2eeb57d8e6158, type: 3}
    - time: 0.2
      value: {fileID: -587484191, guid: 1b82405c1b132914bbe2eeb57d8e6158, type: 3}
    - time: 0.21666667
      value: {fileID: -617702255, guid: 1b82405c1b132914bbe2eeb57d8e6158, type: 3}
    - time: 0.23333333
      value: {fileID: -1847640146, guid: 1b82405c1b132914bbe2eeb57d8e6158, type: 3}
    - time: 0.25
      value: {fileID: -326594729, guid: 1b82405c1b132914bbe2eeb57d8e6158, type: 3}
    - time: 0.26666668
      value: {fileID: -1541499114, guid: 1b82405c1b132914bbe2eeb57d8e6158, type: 3}
    - time: 0.28333333
      value: {fileID: 2104292672, guid: 1b82405c1b132914bbe2eeb57d8e6158, type: 3}
    - time: 0.3
      value: {fileID: 112680902, guid: 1b82405c1b132914bbe2eeb57d8e6158, type: 3}
    - time: 0.31666666
      value: {fileID: -1199273110, guid: 1b82405c1b132914bbe2eeb57d8e6158, type: 3}
    - time: 0.33333334
      value: {fileID: 286250473, guid: 1b82405c1b132914bbe2eeb57d8e6158, type: 3}
    - time: 0.35
      value: {fileID: -83946108, guid: 1b82405c1b132914bbe2eeb57d8e6158, type: 3}
    - time: 0.36666667
      value: {fileID: 1019289576, guid: 1b82405c1b132914bbe2eeb57d8e6158, type: 3}
    - time: 0.38333333
      value: {fileID: -1859832022, guid: 1b82405c1b132914bbe2eeb57d8e6158, type: 3}
    - time: 0.4
      value: {fileID: -1785186349, guid: 1b82405c1b132914bbe2eeb57d8e6158, type: 3}
    - time: 0.41666666
      value: {fileID: -909495208, guid: 1b82405c1b132914bbe2eeb57d8e6158, type: 3}
    - time: 0.43333334
      value: {fileID: -958031276, guid: 1b82405c1b132914bbe2eeb57d8e6158, type: 3}
    - time: 0.45
      value: {fileID: -300828027, guid: 1b82405c1b132914bbe2eeb57d8e6158, type: 3}
    - time: 0.46666667
      value: {fileID: -2049364699, guid: 1b82405c1b132914bbe2eeb57d8e6158, type: 3}
    - time: 0.48333332
      value: {fileID: 450686163, guid: 1b82405c1b132914bbe2eeb57d8e6158, type: 3}
    - time: 0.5
      value: {fileID: -1812671144, guid: 1b82405c1b132914bbe2eeb57d8e6158, type: 3}
    - time: 0.51666665
      value: {fileID: -1808488608, guid: 1b82405c1b132914bbe2eeb57d8e6158, type: 3}
    - time: 0.53333336
      value: {fileID: 990601081, guid: 1b82405c1b132914bbe2eeb57d8e6158, type: 3}
    - time: 0.55
      value: {fileID: -1063730972, guid: 1b82405c1b132914bbe2eeb57d8e6158, type: 3}
    - time: 0.56666666
      value: {fileID: 1073192707, guid: 1b82405c1b132914bbe2eeb57d8e6158, type: 3}
    - time: 0.5833333
      value: {fileID: 240219564, guid: 1b82405c1b132914bbe2eeb57d8e6158, type: 3}
    - time: 0.6
      value: {fileID: 258382796, guid: 1b82405c1b132914bbe2eeb57d8e6158, type: 3}
    - time: 0.6166667
      value: {fileID: -1033258210, guid: 1b82405c1b132914bbe2eeb57d8e6158, type: 3}
    - time: 0.6333333
      value: {fileID: -1460077812, guid: 1b82405c1b132914bbe2eeb57d8e6158, type: 3}
    - time: 0.65
      value: {fileID: -1062153748, guid: 1b82405c1b132914bbe2eeb57d8e6158, type: 3}
    - time: 0.6666667
      value: {fileID: -1397779508, guid: 1b82405c1b132914bbe2eeb57d8e6158, type: 3}
    - time: 0.68333334
      value: {fileID: 1421259770, guid: 1b82405c1b132914bbe2eeb57d8e6158, type: 3}
    - time: 0.7
      value: {fileID: -2109369391, guid: 1b82405c1b132914bbe2eeb57d8e6158, type: 3}
    - time: 0.71666664
      value: {fileID: -1370635811, guid: 1b82405c1b132914bbe2eeb57d8e6158, type: 3}
    - time: 0.73333335
      value: {fileID: 1746356696, guid: 1b82405c1b132914bbe2eeb57d8e6158, type: 3}
    - time: 0.75
      value: {fileID: -1042834979, guid: 1b82405c1b132914bbe2eeb57d8e6158, type: 3}
    - time: 0.76666665
      value: {fileID: 2073924333, guid: 1b82405c1b132914bbe2eeb57d8e6158, type: 3}
    - time: 0.78333336
      value: {fileID: 238755717, guid: 1b82405c1b132914bbe2eeb57d8e6158, type: 3}
    - time: 0.8
      value: {fileID: 1650999418, guid: 1b82405c1b132914bbe2eeb57d8e6158, type: 3}
    - time: 0.81666666
      value: {fileID: -1148238217, guid: 1b82405c1b132914bbe2eeb57d8e6158, type: 3}
    - time: 0.8333333
      value: {fileID: -876984934, guid: 1b82405c1b132914bbe2eeb57d8e6158, type: 3}
    - time: 0.85
      value: {fileID: 1515062351, guid: 1b82405c1b132914bbe2eeb57d8e6158, type: 3}
    - time: 0.8666667
      value: {fileID: 1676756631, guid: 1b82405c1b132914bbe2eeb57d8e6158, type: 3}
    - time: 0.8833333
      value: {fileID: -1431902097, guid: 1b82405c1b132914bbe2eeb57d8e6158, type: 3}
    - time: 0.9
      value: {fileID: -1158452288, guid: 1b82405c1b132914bbe2eeb57d8e6158, type: 3}
    - time: 0.9166667
      value: {fileID: -1518355288, guid: 1b82405c1b132914bbe2eeb57d8e6158, type: 3}
    - time: 0.93333334
      value: {fileID: -2074528666, guid: 1b82405c1b132914bbe2eeb57d8e6158, type: 3}
    - time: 0.95
      value: {fileID: -1174729616, guid: 1b82405c1b132914bbe2eeb57d8e6158, type: 3}
    - time: 0.96666664
      value: {fileID: -843587300, guid: 1b82405c1b132914bbe2eeb57d8e6158, type: 3}
    - time: 0.98333335
      value: {fileID: 2118828945, guid: 1b82405c1b132914bbe2eeb57d8e6158, type: 3}
    attribute: m_Sprite
    path: 
    classID: 212
    script: {fileID: 0}
  m_SampleRate: 60
  m_WrapMode: 0
  m_Bounds:
    m_Center: {x: 0, y: 0, z: 0}
    m_Extent: {x: 0, y: 0, z: 0}
  m_ClipBindingConstant:
    genericBindings:
    - serializedVersion: 2
      path: 0
      attribute: 0
      script: {fileID: 0}
      typeID: 212
      customType: 23
      isPPtrCurve: 1
    pptrCurveMapping:
    - {fileID: 1242610921, guid: 1b82405c1b132914bbe2eeb57d8e6158, type: 3}
    - {fileID: 1204579524, guid: 1b82405c1b132914bbe2eeb57d8e6158, type: 3}
    - {fileID: -829366382, guid: 1b82405c1b132914bbe2eeb57d8e6158, type: 3}
    - {fileID: 1958199088, guid: 1b82405c1b132914bbe2eeb57d8e6158, type: 3}
    - {fileID: -1744086446, guid: 1b82405c1b132914bbe2eeb57d8e6158, type: 3}
    - {fileID: 1751462587, guid: 1b82405c1b132914bbe2eeb57d8e6158, type: 3}
    - {fileID: -1280788796, guid: 1b82405c1b132914bbe2eeb57d8e6158, type: 3}
    - {fileID: 2124176653, guid: 1b82405c1b132914bbe2eeb57d8e6158, type: 3}
    - {fileID: 936637547, guid: 1b82405c1b132914bbe2eeb57d8e6158, type: 3}
    - {fileID: -1906516776, guid: 1b82405c1b132914bbe2eeb57d8e6158, type: 3}
    - {fileID: 1504684320, guid: 1b82405c1b132914bbe2eeb57d8e6158, type: 3}
    - {fileID: 1288672019, guid: 1b82405c1b132914bbe2eeb57d8e6158, type: 3}
    - {fileID: -587484191, guid: 1b82405c1b132914bbe2eeb57d8e6158, type: 3}
    - {fileID: -617702255, guid: 1b82405c1b132914bbe2eeb57d8e6158, type: 3}
    - {fileID: -1847640146, guid: 1b82405c1b132914bbe2eeb57d8e6158, type: 3}
    - {fileID: -326594729, guid: 1b82405c1b132914bbe2eeb57d8e6158, type: 3}
    - {fileID: -1541499114, guid: 1b82405c1b132914bbe2eeb57d8e6158, type: 3}
    - {fileID: 2104292672, guid: 1b82405c1b132914bbe2eeb57d8e6158, type: 3}
    - {fileID: 112680902, guid: 1b82405c1b132914bbe2eeb57d8e6158, type: 3}
    - {fileID: -1199273110, guid: 1b82405c1b132914bbe2eeb57d8e6158, type: 3}
    - {fileID: 286250473, guid: 1b82405c1b132914bbe2eeb57d8e6158, type: 3}
    - {fileID: -83946108, guid: 1b82405c1b132914bbe2eeb57d8e6158, type: 3}
    - {fileID: 1019289576, guid: 1b82405c1b132914bbe2eeb57d8e6158, type: 3}
    - {fileID: -1859832022, guid: 1b82405c1b132914bbe2eeb57d8e6158, type: 3}
    - {fileID: -1785186349, guid: 1b82405c1b132914bbe2eeb57d8e6158, type: 3}
    - {fileID: -909495208, guid: 1b82405c1b132914bbe2eeb57d8e6158, type: 3}
    - {fileID: -958031276, guid: 1b82405c1b132914bbe2eeb57d8e6158, type: 3}
    - {fileID: -300828027, guid: 1b82405c1b132914bbe2eeb57d8e6158, type: 3}
    - {fileID: -2049364699, guid: 1b82405c1b132914bbe2eeb57d8e6158, type: 3}
    - {fileID: 450686163, guid: 1b82405c1b132914bbe2eeb57d8e6158, type: 3}
    - {fileID: -1812671144, guid: 1b82405c1b132914bbe2eeb57d8e6158, type: 3}
    - {fileID: -1808488608, guid: 1b82405c1b132914bbe2eeb57d8e6158, type: 3}
    - {fileID: 990601081, guid: 1b82405c1b132914bbe2eeb57d8e6158, type: 3}
    - {fileID: -1063730972, guid: 1b82405c1b132914bbe2eeb57d8e6158, type: 3}
    - {fileID: 1073192707, guid: 1b82405c1b132914bbe2eeb57d8e6158, type: 3}
    - {fileID: 240219564, guid: 1b82405c1b132914bbe2eeb57d8e6158, type: 3}
    - {fileID: 258382796, guid: 1b82405c1b132914bbe2eeb57d8e6158, type: 3}
    - {fileID: -1033258210, guid: 1b82405c1b132914bbe2eeb57d8e6158, type: 3}
    - {fileID: -1460077812, guid: 1b82405c1b132914bbe2eeb57d8e6158, type: 3}
    - {fileID: -1062153748, guid: 1b82405c1b132914bbe2eeb57d8e6158, type: 3}
    - {fileID: -1397779508, guid: 1b82405c1b132914bbe2eeb57d8e6158, type: 3}
    - {fileID: 1421259770, guid: 1b82405c1b132914bbe2eeb57d8e6158, type: 3}
    - {fileID: -2109369391, guid: 1b82405c1b132914bbe2eeb57d8e6158, type: 3}
    - {fileID: -1370635811, guid: 1b82405c1b132914bbe2eeb57d8e6158, type: 3}
    - {fileID: 1746356696, guid: 1b82405c1b132914bbe2eeb57d8e6158, type: 3}
    - {fileID: -1042834979, guid: 1b82405c1b132914bbe2eeb57d8e6158, type: 3}
    - {fileID: 2073924333, guid: 1b82405c1b132914bbe2eeb57d8e6158, type: 3}
    - {fileID: 238755717, guid: 1b82405c1b132914bbe2eeb57d8e6158, type: 3}
    - {fileID: 1650999418, guid: 1b82405c1b132914bbe2eeb57d8e6158, type: 3}
    - {fileID: -1148238217, guid: 1b82405c1b132914bbe2eeb57d8e6158, type: 3}
    - {fileID: -876984934, guid: 1b82405c1b132914bbe2eeb57d8e6158, type: 3}
    - {fileID: 1515062351, guid: 1b82405c1b132914bbe2eeb57d8e6158, type: 3}
    - {fileID: 1676756631, guid: 1b82405c1b132914bbe2eeb57d8e6158, type: 3}
    - {fileID: -1431902097, guid: 1b82405c1b132914bbe2eeb57d8e6158, type: 3}
    - {fileID: -1158452288, guid: 1b82405c1b132914bbe2eeb57d8e6158, type: 3}
    - {fileID: -1518355288, guid: 1b82405c1b132914bbe2eeb57d8e6158, type: 3}
    - {fileID: -2074528666, guid: 1b82405c1b132914bbe2eeb57d8e6158, type: 3}
    - {fileID: -1174729616, guid: 1b82405c1b132914bbe2eeb57d8e6158, type: 3}
    - {fileID: -843587300, guid: 1b82405c1b132914bbe2eeb57d8e6158, type: 3}
    - {fileID: 2118828945, guid: 1b82405c1b132914bbe2eeb57d8e6158, type: 3}
  m_AnimationClipSettings:
    serializedVersion: 2
    m_AdditiveReferencePoseClip: {fileID: 0}
    m_AdditiveReferencePoseTime: 0
    m_StartTime: 0
    m_StopTime: 1
    m_OrientationOffsetY: 0
    m_Level: 0
    m_CycleOffset: 0
    m_HasAdditiveReferencePose: 0
    m_LoopTime: 1
    m_LoopBlend: 0
    m_LoopBlendOrientation: 0
    m_LoopBlendPositionY: 0
    m_LoopBlendPositionXZ: 0
    m_KeepOriginalOrientation: 0
    m_KeepOriginalPositionY: 1
    m_KeepOriginalPositionXZ: 0
    m_HeightFromFeet: 0
    m_Mirror: 0
  m_EditorCurves: []
  m_EulerEditorCurves: []
  m_HasGenericRootTransform: 0
  m_HasMotionFloatCurves: 0
  m_Events: []
